id,oid,parameter_name,parameter_value,modified_by,created_by,assigned,erased,last_update
NULL,NULL,root_path,/env/INAF_PRISMA/raspberry,1,1,1,0,2021-01-01 16:22:00
NULL,NULL,delta_station,"2 * 12 * 30 * 24 * 60 * 60",1,1,1,0,2021-01-01 16:22:00
NULL,NULL,delta_event_time,"3",1,1,1,0,2021-01-01 16:22:00
NULL,NULL,delta_event_space,"1000",1,1,1,0,2021-01-01 16:22:00
NULL,NULL,cp_dir_config,/env/INAF_PRISMA/PRISMA/workspace/settings/configuration,1,1,1,0,2021-01-01 16:22:00
NULL,NULL,cp_dir_solutions,/env/INAF_PRISMA/PRISMA/workspace/settings/solutions,1,1,1,0,2021-01-01 16:22:00
NULL,NULL,cp_dir_mask,/env/INAF_PRISMA/PRISMA/workspace/settings/mask,1,1,1,0,2021-01-01 16:22:00
NULL,NULL,cp_dir_captures,/env/INAF_PRISMA/PRISMA/workspace/captures,1,1,1,0,2021-01-01 16:22:00
NULL,NULL,cp_dir_astrometry,/env/INAF_PRISMA/PRISMA/workspace/astrometry,1,1,1,0,2021-01-01 16:22:00
NULL,NULL,cp_dir_events,/env/INAF_PRISMA/PRISMA/workspace/events,1,1,1,0,2021-01-01 16:22:00
NULL,NULL,cp_dir_results,/env/INAF_PRISMA/PRISMA/workspace/results,1,1,1,0,2021-01-01 16:22:00
NULL,NULL,cp_solutions,/env/INAF_PRISMA/PRISMA/workspace/settings/solutions.ini,1,1,1,0,2021-01-01 16:22:00
NULL,NULL,cp_catalog,/env/INAF_PRISMA/PRISMA/workspace/settings/catalog.txt,1,1,1,0,2021-01-01 16:22:00
NULL,NULL,cp_logo,/env/INAF_PRISMA/PRISMA/workspace/settings/logo_black.png,1,1,1,0,2021-01-01 16:22:00
NULL,NULL,cp_tmp_user_config_path,/env/INAF_PRISMA/PRISMA/workspace/tmp_user_configs,1,1,1,0,2021-01-01 16:22:00
NULL,NULL,cp_default_configuration_file,/env/INAF_PRISMA/PRISMA/workspace/settings/configuration.ini,1,1,1,0,2021-01-01 16:22:00
NULL,NULL,email_config_email,"event_sentinel@prisma.inaf.it",1,1,1,0,2021-01-01 16:22:00
NULL,NULL,email_config_password,"",1,1,1,0,2021-01-01 16:22:00
NULL,NULL,email_config_smtp_server,"localhost",1,1,1,0,2021-01-01 16:22:00
NULL,NULL,email_config_smtp_port,"1025",1,1,1,0,2021-01-01 16:22:00
NULL,NULL,email_config_message_new_event_subject,"PRISMA Sentinel | New Event Found {event_code}",1,1,1,0,2021-01-01 16:22:00
NULL,NULL,email_config_message_new_event_text,"Hi {first_name} {last_name},\nEvent {event_code} was just found.\nInvolved stations are: {stations}",1,1,1,0,2021-01-01 16:22:00
NULL,NULL,email_config_message_new_event_html,"<html>\n<body>\n\t<p>Hi {first_name} {last_name},<br>\n\tEvent {event_code} was just found.\n\tInvolved stations are: {stations}\n\t</p>\n</body>\n</html>",1,1,1,0,2021-01-01 16:22:00
NULL,NULL,email_config_message_detection_added_to_event_subject,"PRISMA Sentinel | New Detection added to Event {event_code}",1,1,1,0,2021-01-01 16:22:00
NULL,NULL,email_config_message_detection_added_to_event_text,"Hi {first_name} {last_name},\nDetection {detection_codes} was just added to event {event_code}.",1,1,1,0,2021-01-01 16:22:00
NULL,NULL,email_config_message_detection_added_to_event_html,"<html>\n<body>\n\t<p>Hi {first_name} {last_name},<br>\n\tDetection {detection_codes} was just added to event {event_code}.\n\t</p>\n</body>\n</html>",1,1,1,0,2021-01-01 16:22:00
NULL,NULL,calibration_max_failed_retry_attempts,10,1,1,1,0,2021-01-01 16:22:00
NULL,NULL,event_processing_execution_interval,10,1,1,1,0,2021-01-01 16:22:00
NULL,NULL,calibration_date,NotSetYet,1,1,1,0,2021-01-01 16:22:00